<?xml version="1.0" encoding="UTF-8" standalone="no"?>
<svg
   xmlns:dc="http://purl.org/dc/elements/1.1/"
   xmlns:cc="http://creativecommons.org/ns#"
   xmlns:rdf="http://www.w3.org/1999/02/22-rdf-syntax-ns#"
   xmlns:svg="http://www.w3.org/2000/svg"
   xmlns="http://www.w3.org/2000/svg"
   xmlns:sodipodi="http://sodipodi.sourceforge.net/DTD/sodipodi-0.dtd"
   xmlns:inkscape="http://www.inkscape.org/namespaces/inkscape"
   inkscape:version="1.0beta2 (7cf281c, 2019-12-21)"
   sodipodi:docname="object-tweak-jitter-color-symbolic.svg"
   viewBox="0 0 16 16"
   height="16"
   width="16"
   id="svg1"
   version="1.1">
  <metadata
     id="metadata6050">
    <rdf:RDF>
      <cc:Work
         rdf:about="">
        <dc:format>image/svg+xml</dc:format>
        <dc:type
           rdf:resource="http://purl.org/dc/dcmitype/StillImage" />
      </cc:Work>
    </rdf:RDF>
  </metadata>
  <defs
     id="defs6048" />
  <style
     id="s0">.base { fill:#000000; }
.success { fill:#009909; }
.warning { fill:#FF1990; }
.error { fill:#00AAFF; }
.dark {  }
</style>
  <style
     id="s2">
@import '../../highlights.css';
</style>
  <sodipodi:namedview
     inkscape:current-layer="svg1"
     inkscape:window-maximized="1"
     inkscape:window-y="-6"
     inkscape:window-x="65"
     inkscape:window-height="890"
     inkscape:window-width="1296"
     inkscape:cy="8"
     inkscape:cx="8"
     inkscape:zoom="41.125"
     showgrid="true"
     id="namedview"
     guidetolerance="10"
     gridtolerance="10"
     objecttolerance="10">
    <inkscape:grid
       id="grid"
       type="xygrid" />
  </sodipodi:namedview>
  <g
     inkscape:label="00113"
     id="object-tweak-jitter-color"
     transform="translate(-255,-667.36218)">
    <path
       style="opacity:0;fill:none"
       d="m 255,667.36218 h 16 v 16 h -16 z"
       id="rect4563"
       inkscape:connector-curvature="0" />
    <path
       style="opacity:1"
       d="m 257,677.36218 h 4 v 4 h -4 z"
       id="rect4567"
       inkscape:connector-curvature="0" />
    <path
       transform="scale(-1)"
       style="opacity:1"
       d="m -269,-681.36218 h 4 v 3.93072 h -4 z"
       id="rect4569"
       inkscape:connector-curvature="0" />
    <path
       transform="scale(-1)"
       style="opacity:1"
       d="m -265,-677.36218 h 4 v 3.99999 h -4 z"
       id="rect4573"
       inkscape:connector-curvature="0" />
    <path
       class="warning"
       transform="scale(1,-1)"
       style="opacity:0.5"
       d="m 261,-673.36218 h 4 v 4 h -4 z"
       id="rect4575"
       inkscape:connector-curvature="0" />
    <path
       class="error"
       transform="scale(-1)"
       style="opacity:0.5"
       d="m -269,-677.43152 h 4 v 4.06928 h -4 z"
       id="rect4577"
       inkscape:connector-curvature="0" />
    <path
       class="warning"
       style="opacity:0.35"
       d="m 261,677.36218 h 4 v 4 h -4 z"
       id="rect4579"
       inkscape:connector-curvature="0" />
    <path
       class="success"
       style="opacity:0.5"
       d="m 257,673.36218 h 4 v 4 h -4 z"
       id="rect4581"
       inkscape:connector-curvature="0" />
  </g>
</svg>
